Division,WeightClassKg,Place,Name,Team,BodyweightKg,Best3SquatKg,Best3BenchKg,Best3DeadliftKg,TotalKg,Equipment,Event,Sex,BirthDate
Boys,51.71,1,Cade Agee,Frisco Wakeland,50.58,88.45,43.09,99.79,231.33,Single-ply,SBD,M,
Boys,55.79,1,Trevor Nate,Frisco Wakeland,55.38,111.13,54.43,111.13,276.69,Single-ply,SBD,M,
Boys,55.79,2,Brayden Reeves,Little Elm,55.29,79.38,43.09,95.25,217.72,Single-ply,SBD,M,
Boys,59.87,1,Britton Despain,Little Elm,58.65,129.27,83.91,183.7,396.89,Single-ply,SBD,M,
Boys,59.87,2,Blayze Ferguson,Frisco Heritage,58.33,138.35,95.25,147.42,381.02,Single-ply,SBD,M,
Boys,59.87,3,Nick Doros,Frisco Wakeland,59.24,131.54,86.18,138.35,356.07,Single-ply,SBD,M,
Boys,59.87,4,Conner Gressett,Frisco Wakeland,59.56,124.74,65.77,131.54,322.05,Single-ply,SBD,M,
Boys,59.87,5,Jaden Campbell,Little Elm,57.11,104.33,63.5,108.86,276.69,Single-ply,SBD,M,
Boys,67.13,1,Payton Stamper,Frisco Wakeland,67.09,136.08,79.38,145.15,360.61,Single-ply,SBD,M,
Boys,67.13,2,Garrett Cannon,Frisco Heritage,65.32,127.01,88.45,129.27,344.73,Single-ply,SBD,M,
Boys,67.13,3,Divaad Terry,McKinney,62.91,136.08,72.57,131.54,340.19,Single-ply,SBD,M,
Boys,67.13,4,Brady Cates,McKinney Boyd,60.65,97.52,68.04,127.01,292.57,Single-ply,SBD,M,
Boys,74.84,1,Andrew Palmer-Bishop,Little Elm,72.35,183.7,99.79,170.1,453.59,Single-ply,SBD,M,
Boys,74.84,2,Daniel Chavez,Coppell,72.57,149.69,92.99,172.37,415.04,Single-ply,SBD,M,
Boys,74.84,3,Josh Wilson,Frisco Wakeland,69.85,140.61,97.52,142.88,381.02,Single-ply,SBD,M,
Boys,74.84,4,Donovan Dixon,McKinney Boyd,73.89,158.76,79.38,142.88,381.02,Single-ply,SBD,M,
Boys,74.84,5,Jake Roemer,Coppell,73.07,142.88,79.38,156.49,378.75,Single-ply,SBD,M,
Boys,74.84,6,Max Alducin,Coppell,71.4,140.61,74.84,158.76,374.21,Single-ply,SBD,M,
Boys,74.84,7,Carlos Nieto,Little Elm,72.85,133.81,72.57,165.56,371.95,Single-ply,SBD,M,
Boys,74.84,DQ,Crosby Parker,McKinney Boyd,73.66,136.08,,,,Single-ply,SBD,M,
Boys,74.84,DQ,Braxton Ray,McKinney Boyd,70.22,,,,,Single-ply,SBD,M,
Boys,74.84,DQ,Dane Smith,McKinney Boyd,73.75,99.79,,,,Single-ply,SBD,M,
Boys,82.1,1,Jason Ngwu,Coppell,82.05,185.97,113.4,183.7,483.08,Single-ply,SBD,M,
Boys,82.1,2,Brayden Watson,Coppell,77.52,183.7,102.06,192.78,478.54,Single-ply,SBD,M,
Boys,82.1,3,Preston Rogers,Coppell,81.74,165.56,88.45,188.24,442.25,Single-ply,SBD,M,
Boys,82.1,4,Mario Morales #2,Frisco Wakeland,80.33,158.76,106.59,170.1,435.45,Single-ply,SBD,M,
Boys,82.1,5,Zach Stricker,Coppell,81.24,151.95,92.99,183.7,428.64,Single-ply,SBD,M,
Boys,82.1,6,Tyson Bope,Little Elm,80.88,161.03,88.45,176.9,426.38,Single-ply,SBD,M,
Boys,82.1,7,Emerson Price,McKinney North,76.38,158.76,88.45,176.9,424.11,Single-ply,SBD,M,
Boys,82.1,8,Jack Moses,McKinney,77.61,136.08,104.33,183.7,424.11,Single-ply,SBD,M,
Boys,82.1,9,Grant Goode,McKinney North,79.61,154.22,88.45,161.03,403.7,Single-ply,SBD,M,
Boys,82.1,10,Coy Harris,McKinney,81.06,124.74,83.91,120.2,328.85,Single-ply,SBD,M,
Boys,82.1,DQ,Adrian Anthony,McKinney Boyd,77.79,156.49,104.33,,,Single-ply,SBD,M,
Boys,82.1,DQ,Ethan Tubiolo,McKinney Boyd,80.29,142.88,,142.88,,Single-ply,SBD,M,
Boys,89.81,1,Mitchell Hawk,Frisco Independence,85.46,204.12,138.35,183.7,526.17,Single-ply,SBD,M,
Boys,89.81,2,Dalton Veres,Frisco Wakeland,87.54,183.7,131.54,183.7,498.95,Single-ply,SBD,M,
Boys,89.81,3,Murphy Roberts,Frisco Independence,83.6,197.31,124.74,165.56,487.61,Single-ply,SBD,M,
Boys,89.81,4,Diego White,McKinney North,88.04,185.97,92.99,165.56,444.52,Single-ply,SBD,M,
Boys,89.81,5,Jesse Kompany,Coppell,86.64,165.56,90.72,183.7,439.98,Single-ply,SBD,M,
Boys,89.81,6,Cameron Banks,McKinney North,87.95,158.76,77.11,172.37,408.23,Single-ply,SBD,M,
Boys,89.81,DQ,Will Smith,McKinney,86.77,188.24,,,,Single-ply,SBD,M,
Boys,89.81,DQ,Dominique Stephenson,McKinney Boyd,88.86,156.49,77.11,,,Single-ply,SBD,M,
Boys,89.81,DQ,Sean Madkins,McKinney Boyd,89.63,156.49,106.59,,,Single-ply,SBD,M,
Boys,99.79,1,Zach Cheney,Frisco Wakeland,92.22,183.7,122.47,210.92,517.1,Single-ply,SBD,M,
Boys,99.79,2,Ray Gong,Coppell,96.39,201.85,115.67,199.58,517.1,Single-ply,SBD,M,
Boys,99.79,3,Robert Matthew,McKinney,92.9,151.95,83.91,174.63,410.5,Single-ply,SBD,M,
Boys,99.79,4,Sam Filean,McKinney,93.44,142.88,95.25,170.1,408.23,Single-ply,SBD,M,
Boys,99.79,5,Jordan Taylor #2,Frisco Heritage,95.44,142.88,117.93,145.15,405.97,Single-ply,SBD,M,
Boys,99.79,DQ,Ryan Carter,McKinney,99.47,142.88,,,,Single-ply,SBD,M,
Boys,99.79,DQ,Terrance Broadway,McKinney Boyd,92.62,188.24,106.59,,,Single-ply,SBD,M,
Boys,109.77,1,Jack Karhu,Frisco Independence,109.09,238.14,138.35,242.67,619.15,Single-ply,SBD,M,
Boys,109.77,2,Cameron Bork,Little Elm,107.23,204.12,120.2,208.65,532.97,Single-ply,SBD,M,
Boys,109.77,3,Sammie Hernandez,Coppell,108.82,188.24,97.52,179.17,464.93,Single-ply,SBD,M,
Boys,109.77,4,Carson McMillan,Frisco Wakeland,100.11,170.1,92.99,181.44,444.52,Single-ply,SBD,M,
Boys,109.77,5,Luke Minor,Frisco Heritage,103.87,142.88,115.67,138.35,396.89,Single-ply,SBD,M,
Boys,109.77,6,Tanner Call,McKinney,102.01,131.54,70.31,158.76,360.61,Single-ply,SBD,M,
Boys,109.77,DQ,Reagan Robinson,McKinney Boyd,103.06,,,,,Single-ply,SBD,M,
Boys,124.74,1,Dylan Rock,Frisco Heritage,121.25,210.92,138.35,201.85,551.11,Single-ply,SBD,M,
Boys,124.74,2,Spencer Stephenson,McKinney North,113.44,195.04,120.2,226.8,542.04,Single-ply,SBD,M,
Boys,124.74,3,Aj Magallanes,Frisco Heritage,113.67,195.04,124.74,195.04,514.83,Single-ply,SBD,M,
Boys,124.74,4,Jay'den Walker,McKinney North,120.7,192.78,104.33,215.46,512.56,Single-ply,SBD,M,
Boys,124.74,5,Keyon Davis,McKinney North,113.9,170.1,97.52,226.8,494.42,Single-ply,SBD,M,
Boys,124.74,6,Javriel Dillard,Little Elm,119.79,183.7,111.13,183.7,478.54,Single-ply,SBD,M,
Boys,124.74,7,Jax Brown,Little Elm,112.22,181.44,111.13,181.44,474,Single-ply,SBD,M,
Boys,124.74,8,Alvin Ebosele,Coppell,111.63,179.17,97.52,188.24,464.93,Single-ply,SBD,M,
Boys,124.74,9,Xavier Burnside,McKinney Boyd,116.26,179.17,127.01,151.95,458.13,Single-ply,SBD,M,
Boys,124.74,10,Austin Darcy,Coppell,111.13,183.7,92.99,170.1,446.79,Single-ply,SBD,M,
Boys,124.74,11,Seth Holmes,McKinney North,121.56,165.56,106.59,172.37,444.52,Single-ply,SBD,M,
Boys,124.74,12,Adrian Mackintrush,McKinney,121.11,136.08,83.91,142.88,362.87,Single-ply,SBD,M,
Boys,124.74,13,Adrian Gallardo,McKinney,113.62,102.06,79.38,127.01,308.44,Single-ply,SBD,M,
Boys,124.74+,1,Victor Akwa,Frisco Heritage,142.79,217.72,131.54,192.78,542.04,Single-ply,SBD,M,
Boys,124.74+,2,Will Thompson,McKinney,128.46,213.19,129.27,163.29,505.76,Single-ply,SBD,M,
Boys,124.74+,3,Brandon Nelson,McKinney North,137.03,210.92,90.72,204.12,505.76,Single-ply,SBD,M,
Boys,124.74+,4,Febechi Nwaiwu,Coppell,138.89,188.24,111.13,190.51,489.88,Single-ply,SBD,M,
Boys,124.74+,DQ,Connor Stroh,Frisco Wakeland,149.82,,,,,Single-ply,SBD,M,
