Name,WeightClassKg,Division,Best3SquatKg,Best3BenchKg,Best3DeadliftKg,TotalKg,Sex,Event,Equipment,Place,State
Cameron Miller,90,M-T,65.77,113.4,219.99,399.16,M,SBD,Single-ply,1,
Bill Scully,90,M-M2,106.59,106.59,106.59,319.78,M,SBD,Single-ply,1,
Anthony Scolaro,90,M-O,238.14,147.42,272.16,657.71,M,SBD,Single-ply,1,
Lyndon Samuels,110,M-O,260.82,136.08,272.16,669.05,M,SBD,Single-ply,1,
